[gd_scene format=2]

[node name="DatabaseLayout" type="VBoxContainer"]
anchor_right = 1.0
anchor_bottom = 1.0
__meta__ = {
"_edit_use_anchors_": false
}

[node name="Toolbar" type="HBoxContainer" parent="."]
margin_right = 1024.0
margin_bottom = 20.0

[node name="CreateBtn" type="Button" parent="Toolbar"]
margin_right = 144.0
margin_bottom = 20.0
hint_tooltip = "Opens the database creation dialog"
text = "Create new database"

[node name="EditBtn" type="Button" parent="Toolbar"]
margin_left = 148.0
margin_right = 245.0
margin_bottom = 20.0
hint_tooltip = "Opens the database edit dialog. Displays all the cards in a list. Allows edit, duplicate and delete of cards. "
disabled = true
text = "Edit database"

[node name="DeleteBtn" type="Button" parent="Toolbar"]
margin_left = 249.0
margin_right = 365.0
margin_bottom = 20.0
hint_tooltip = "Removes the database file with all the cards in it. Not reversible."
disabled = true
text = "Delete database"

[node name="DatabaseList" type="ItemList" parent="."]
margin_top = 24.0
margin_right = 1024.0
margin_bottom = 600.0
hint_tooltip = "Single-click to select an element.
Double-click to edit the database name."
size_flags_vertical = 3
items = [ "main: Main Database (20 cards)", null, false ]
